<svg width="48" height="45" viewBox="0 0 48 45" fill="none" xmlns="http://www.w3.org/2000/svg">
<path d="M38.625 27.625C39.3214 28.3208 40.2656 28.7116 41.25 28.7116C42.2344 28.7116 43.1786 28.3208 43.875 27.625C44.5708 26.9286 44.9616 25.9844 44.9616 25C44.9616 24.0156 44.5708 23.0714 43.875 22.375L30 8.5" stroke="#0074BC" stroke-width="2" stroke-linecap="round" stroke-linejoin="round"/>
<path d="M1.5 16V1H16.65C17.1014 1.0003 17.5523 1.02936 18 1.087" stroke="#0074BC" stroke-width="2" stroke-linecap="round" stroke-linejoin="round"/>
<path d="M34.5 23.5L39.039 28.039C39.7348 28.7354 40.1256 29.6796 40.1256 30.664C40.1256 31.6484 39.7348 32.5926 39.039 33.289V33.289C38.3426 33.9848 37.3984 34.3756 36.414 34.3756C35.4296 34.3756 34.4854 33.9848 33.789 33.289L29.208 28.708" stroke="#0074BC" stroke-width="2" stroke-linecap="round" stroke-linejoin="round"/>
<path d="M32.625 32.125C33.3208 32.8214 33.7116 33.7656 33.7116 34.75C33.7116 35.7344 33.3208 36.6786 32.625 37.375V37.375" stroke="#0074BC" stroke-width="2" stroke-linecap="round" stroke-linejoin="round"/>
<path d="M30.0001 8.5L19.6531 16.261C19.1562 16.6332 18.5656 16.8598 17.9473 16.9154C17.329 16.9711 16.7074 16.8535 16.1521 16.576V16.576C15.6778 16.3391 15.2667 15.9928 14.9525 15.5657C14.6384 15.1387 14.4302 14.6431 14.3452 14.1198C14.2603 13.5964 14.3009 13.0604 14.4638 12.5559C14.6267 12.0514 14.9072 11.5928 15.2821 11.218L24.4591 3.217C26.0976 1.78807 28.198 1.00056 30.3721 1H46.5001V16" stroke="#0074BC" stroke-width="2" stroke-linecap="round" stroke-linejoin="round"/>
<path d="M5.62502 20.8761L4.87407 21.627C3.42484 23.0763 3.42484 25.4259 4.87407 26.8752L4.87619 26.8773C6.32543 28.3265 8.6751 28.3265 10.1243 26.8773L10.8753 26.1263C12.3245 24.6771 12.3245 22.3274 10.8753 20.8782L10.8732 20.8761C9.42392 19.4268 7.07425 19.4268 5.62502 20.8761Z" stroke="#0074BC" stroke-width="2" stroke-linecap="round" stroke-linejoin="round"/>
<path d="M11.0853 25.9181L9.92071 27.0827C8.47147 28.532 8.47147 30.8816 9.92071 32.3309L9.92283 32.333C11.3721 33.7822 13.7218 33.7822 15.171 32.333L16.3356 31.1684C17.7848 29.7191 17.7848 27.3695 16.3356 25.9202L16.3335 25.9181C14.8842 24.4689 12.5346 24.4689 11.0853 25.9181Z" stroke="#0074BC" stroke-width="2" stroke-linecap="round" stroke-linejoin="round"/>
<path d="M15.9209 31.5784L15.17 32.3293C13.7207 33.7785 13.7207 36.1282 15.17 37.5774L15.1721 37.5796C16.6213 39.0288 18.971 39.0288 20.4203 37.5796L21.1712 36.8286C22.6205 35.3794 22.6205 33.0297 21.1712 31.5805L21.1691 31.5784C19.7199 30.1291 17.3702 30.1291 15.9209 31.5784Z" stroke="#0074BC" stroke-width="2" stroke-linecap="round" stroke-linejoin="round"/>
<path d="M21.2307 36.7706L20.4521 37.5491C19.2091 38.7921 19.2086 40.807 20.4511 42.0495C21.6935 43.2919 23.7084 43.2914 24.9515 42.0484L25.73 41.2699C26.973 40.0268 26.9735 38.012 25.731 36.7695C24.4886 35.527 22.4737 35.5275 21.2307 36.7706Z" stroke="#0074BC" stroke-width="2" stroke-linecap="round" stroke-linejoin="round"/>
</svg>
